{
  "ambientocclusion": false,
  "textures": {"better": "blocks/grass/grass4"},
  "elements":
  [
    {
      "from": [ 0, 16, 8 ],
      "to": [ 16, 32, 8 ],
      "rotation": { "origin": [ 10, 7, 8 ], "axis": "y", "angle": 45, "rescale": true },
      "shade": false,
      "faces":
      {
        "north": { "uv": [ 16, 0, 0, 16 ], "texture": "#better", "tintindex":0,"cullface": "up" },
        "south": { "uv": [ 0, 0, 16, 16 ], "texture": "#better", "tintindex":0,"cullface": "up" }
      }
    },
    {
      "from": [ 8, 16, 0 ],
      "to": [ 8, 32, 16 ],
      "rotation": { "origin": [ 10, 7, 8 ], "axis": "y", "angle": 45, "rescale": true },
      "shade": false,
      "faces":
      {
        "west": { "uv": [ 16, 0, 0, 16 ], "texture": "#better","tintindex": 0,"cullface": "up" },
        "east": { "uv": [ 0, 0, 16, 16 ], "texture": "#better","tintindex": 0,"cullface": "up" }
      }
    }
  ],
  "display":
  {
    "gui":
    {
      "rotation": [ 30, 225, 0 ],
      "translation": [ 0, 0, 0],
      "scale":[ 0.625, 0.625, 0.625 ]
    },
    "ground":
    {
      "rotation": [ 0, 0, 0 ],
      "translation": [ 0, 3, 0],
      "scale":[ 0.25, 0.25, 0.25 ]
    },
    "fixed":
    {
      "rotation": [ 0, 0, 0 ],
      "translation": [ 0, 0, 0],
      "scale":[ 0.5, 0.5, 0.5 ]
    },
    "thirdperson_righthand":
    {
      "rotation": [ 75, 45, 0 ],
      "translation": [ 0, 2.5, 0],
      "scale": [ 0.375, 0.375, 0.375 ]
    },
    "firstperson_righthand":
    {
      "rotation": [ 0, 45, 0 ],
      "translation": [ 0, 0, 0 ],
      "scale": [ 0.4, 0.4, 0.4 ]
    },
    "firstperson_lefthand":
    {
      "rotation": [ 0, 225, 0 ],
      "translation": [ 0, 0, 0 ],
      "scale": [ 0.40, 0.40, 0.40 ]
    }
  }
}
