{
    "parent": "block/grass",
    "textures": {
        "bottom": "biomesoplenty:blocks/dirt_loamy",
        "top": "biomesoplenty:blocks/grass_top",
        "side": "biomesoplenty:blocks/grass_loamy_side",
        "overlay": "biomesoplenty:blocks/grass_side_overlay"
    }
}
