{
	"__comment": "Designed by Sphax for PureBDcraft - http://bdcraft.net",
    "parent": "block/cube_column",
    "textures": {
        "side": "blocks/coarse_dirt",
        "end": "blocks/_bdc/coarse_dirt_top"
    }
}
