{
"__comment": "Model by Mickey Joe & Sphax for PureBDcraft - BDcraft.net.",
"parent": "block/carrots_stage1",
"textures": {
    "particle": "blocks/_bdc/potatoes",
    "crop": "blocks/_bdc/potatoes"
}
}