{
	"__comment": "Designed by Sphax for PureBDcraft - http://bdcraft.net",
    "parent": "block/cube_column",
    "textures": {
        "side": "blocks/_bdc/dirt_03",
        "end": "blocks/_bdc/dirt_top_03"
    }
}
