{
	"__comment": "Designed by HanFox for PureBDcraft - http://bdcraft.net",
    "variants": {
		"normal": [
			{ "model": "grass_path", "weight": 30 },
			{ "model": "_bdc/grass_path02", "weight": 15 },
			{ "model": "_bdc/grass_path03", "weight": 15 },
			{ "model": "_bdc/grass_path04", "weight": 25 },
			{ "model": "_bdc/grass_path05", "weight": 15 }
		]
    }
}
