{
    "variants": {
        "": [
			{ "model": "stonebrick" },
			{ "model": "_bdc/stone_bricks_01" },
			{ "model": "_bdc/stone_bricks_02" },
			{ "model": "_bdc/stone_bricks_03" },
			{ "model": "_bdc/stone_bricks_04" },
			{ "model": "_bdc/stone_bricks_05" },
			{ "model": "_bdc/stone_bricks_06" },
			{ "model": "_bdc/stone_bricks_07" },
			{ "model": "_bdc/stone_bricks_08" },
			{ "model": "_bdc/stone_bricks_09" },
			{ "model": "_bdc/stone_bricks_10" },
			{ "model": "_bdc/stone_bricks_11" }
		]
    }
}
